<svg xmlns="http://www.w3.org/2000/svg" viewBox="0 0 90 90">
    <circle fill="green" cx="45" cy="45" r="45"/>
    <text font-size="48" fill="white" x="45" y="62" text-anchor="middle"
    font-family="sans-serif"
    >E</text>
</svg>